﻿"Tidsstempel","Please write your participant ID from the test ","Gender","Education","Current semester","How strongly do you associate Liberal Arts with males or females? ","How strongly do you associate Science with males or females? ","Please rate your attitude towards Liberal Arts ","Please rate your attitude towards Science ","Different proportions of men and women are found among people with the very higest levels of math ability ","On average, men and women differ in their willingness to devote the time required by such ""high-powered"" positions","On average, men and wowen differ naturally in their scientific interest","On average, men and women differ in their willingness to spend time away from their families ","Directly or indirectly, boy and girls tend to receive different levels of encouragement for developing scientific interest","On average, whether consciously or unconsciously, men are favored in hiring and promotion ","Being knowledgable about Science ","Being knowledgable about Liberal Arts","Suppose that ten 9th-grade boys were picked at random from a typical Danish high school. How many would you predict to complete a calculus course before finishing high school? ","Suppose that ten 9th-grade girls were picked at random from a typical Danish high school. How many would you predict to complete a calculus course before finishing hihg school? "
"2019/04/23 6:14:08 PM EET","Helene","","","","Slightly female","Slightly male","Like","Like","Somewhat important","Slightly important","Slightly important","Somewhat important","Somewhat important","Somewhat important","Very important","Very important","8","8"
"2019/04/24 1:34:46 PM EET","Jacob","","","","Moderately female","Moderately male","Neither like or dislike","Like","Somewhat important","Somewhat important","Slightly important","Somewhat important","Somewhat important","Somewhat important","Very important","Somewhat important","3","5"
"2019/04/24 1:57:01 PM EET","MSWN","","","","Slightly female","Slightly male","Like","Strongly like","Slightly important","Not at all important","Not at all important","Not at all important","Very important","Very important","Very important","Somewhat important","5","5"
"2019/04/24 2:46:53 PM EET","MEA","","","","Moderately female","Moderately male","Neither like or dislike","Strongly like","Very important","Extremely important","Slightly important","Very important","Not at all important","Very important","Extremely important","Slightly important","1","2"
"2019/04/24 2:56:50 PM EET","J.T.D","","","","Slightly female","Moderately male","Like","Strongly like","Somewhat important","Very important","Extremely important","Extremely important","Not at all important","Slightly important","Extremely important","Somewhat important","7","9"
"2019/04/24 3:19:45 PM EET","ALB","","","","Neither male nor female","Slightly male","Neither like or dislike","Strongly like","Not at all important","Somewhat important","Slightly important","Very important","Very important","Somewhat important","Extremely important","Slightly important","8","8"
"2019/04/24 3:32:44 PM EET","AMBB","","","","Neither male nor female","Slightly male","Like","Strongly like","Not at all important","Not at all important","Not at all important","Slightly important","Not at all important","Slightly important","Very important","Somewhat important","9","9"
"2019/04/24 3:43:13 PM EET","Celine","","","","Slightly female","Slightly male","Like","Like","Somewhat important","Somewhat important","Somewhat important","Somewhat important","Somewhat important","Somewhat important","Very important","Somewhat important","6","6"
"2019/04/24 3:53:51 PM EET","Ingharstef","","","","Neither male nor female","Neither male nor female","Dislike","Strongly like","Somewhat important","Very important","Extremely important","Extremely important","Very important","Extremely important","Extremely important","Somewhat important","6","6"
"2019/04/25 8:24:36 AM EET","JLE","","","","Slightly female","Neither male nor female","Neither like or dislike","Strongly like","Somewhat important","Somewhat important","Not at all important","Not at all important","Not at all important","Somewhat important","Extremely important","Somewhat important","2","1"
"2019/04/25 8:47:57 AM EET","tkv","","","","Moderately female","Neither male nor female","Neither like or dislike","Strongly like","Not at all important","Not at all important","Not at all important","Not at all important","Not at all important","Not at all important","Very important","Not at all important","3","4"
"2019/04/25 8:57:55 AM EET","JNH","","","","Slightly female","Neither male nor female","Dislike","Like","Not at all important","Not at all important","Not at all important","Not at all important","Slightly important","Not at all important","Very important","Somewhat important","8","8"
"2019/04/25 8:59:26 AM EET","Martin","","","","Moderately female","Neither male nor female","Dislike","Strongly like","Not at all important","Not at all important","Not at all important","Slightly important","Very important","Not at all important","Extremely important","Slightly important","8","10"
"2019/04/25 9:15:15 AM EET","Line","","","","Slightly female","Slightly male","Like","Strongly like","Extremely important","Very important","Very important","Not at all important","Extremely important","Not at all important","Extremely important","Very important","7","9"
"2019/04/25 9:24:51 AM EET","Emil","","","","Slightly female","Neither male nor female","Like","Strongly like","Somewhat important","Slightly important","Slightly important","Somewhat important","Slightly important","Very important","Extremely important","Very important","5","7"
"2019/04/25 9:25:54 AM EET","Anders","","","","Moderately female","Moderately male","Strongly dislike","Strongly like","Extremely important","Extremely important","Extremely important","Extremely important","Slightly important","Not at all important","Extremely important","Not at all important","4","2"
"2019/04/25 9:40:15 AM EET","Jennie","","","","Neither male nor female","Slightly male","Like","Strongly like","Somewhat important","Somewhat important","Slightly important","Somewhat important","Somewhat important","Very important","Very important","Slightly important","5","5"
"2019/04/25 9:40:32 AM EET","cb","","","","Slightly female","Slightly male","Like","Strongly like","Slightly important","Slightly important","Slightly important","Not at all important","Somewhat important","Slightly important","Extremely important","Very important","6","4"
"2019/04/25 9:50:50 AM EET","LAJ","","","","Slightly female","Slightly female","Like","Strongly like","Not at all important","Slightly important","Not at all important","Somewhat important","Not at all important","Somewhat important","Very important","Somewhat important","5","5"
"2019/04/25 9:53:05 AM EET","bio","","","","Slightly female","Neither male nor female","Neither like or dislike","Strongly like","Not at all important","Slightly important","Somewhat important","Somewhat important","Somewhat important","Extremely important","Extremely important","Slightly important","8","8"
"2019/04/25 10:04:04 AM EET","EMJ","","","","Neither male nor female","Neither male nor female","Neither like or dislike","Strongly like","Somewhat important","Somewhat important","Not at all important","Somewhat important","Somewhat important","Somewhat important","Extremely important","Very important","6","7"
"2019/04/29 10:50:08 AM EET","uy56","Female","Cognitive Science","2","Slightly female","Slightly male","Strongly like","Strongly like","Very important","Slightly important","Not at all important","Somewhat important","Slightly important","Extremely important","Very important","Very important","7","5"
"2019/04/29 11:52:32 AM EET","Malte","Male","Cognitive Science","2","Moderately female","Moderately male","Strongly like","Strongly like","Not at all important","Slightly important","Not at all important","Somewhat important","Slightly important","Extremely important","Very important","Very important","7","8"
"2019/04/29 11:53:48 AM EET","snapekillsdumbledore","Male","Cognitive Science","2","Slightly female","Neither male nor female","Dislike","Strongly like","Slightly important","Slightly important","Somewhat important","Somewhat important","Very important","Very important","Extremely important","Somewhat important","3","7"
"2019/04/29 2:00:01 PM EET","sartrefan1234","Female","Philosophy","4","Moderately female","Moderately male","Like","Like","Slightly important","Somewhat important","Not at all important","Somewhat important","Very important","Very important","Very important","Extremely important","9","5"
"2019/04/29 2:02:52 PM EET","Sokrates","Female","Philosophy","2","Moderately female","Moderately male","Strongly like","Strongly like","Very important","Somewhat important","Slightly important","Slightly important","Very important","Somewhat important","Very important","Very important","6","8"
"2019/04/29 2:10:11 PM EET","Færing","Female","Philosophy","2","Neither male nor female","Strongly male","Strongly like","Strongly like","Slightly important","Very important","Very important","Very important","Extremely important","Slightly important","Very important","Very important","5","5"
"2019/04/29 2:32:56 PM EET","DT","Male","Philosophy","10","Neither male nor female","Slightly male","Strongly like","Strongly like","Not at all important","Slightly important","Slightly important","Not at all important","Very important","Very important","Extremely important","Extremely important","6","6"
"2019/04/30 11:17:17 AM EET","LJA","Male","Philosophy","4","Neither male nor female","Slightly male","Strongly like","Neither like or dislike","Very important","Slightly important","Somewhat important","Somewhat important","Slightly important","Slightly important","Very important","Extremely important","8","8"
"2019/04/30 11:56:13 AM EET","Katrine Ottosen","Female","Philosophy","4","Moderately male","Slightly male","Like","Like","Slightly important","Not at all important","Not at all important","Not at all important","Extremely important","Extremely important","Very important","Very important","8","8"
"2019/04/30 12:09:55 PM EET","VMP","Male","Cognitive Science","4","Moderately female","Strongly male","Like","Strongly like","Somewhat important","Slightly important","Somewhat important","Slightly important","Very important","Somewhat important","Very important","Somewhat important","9","8"
"2019/04/30 12:14:08 PM EET","Jon Snow","Male","Cognitive Science","4","Moderately female","Slightly male","Like","Like","Somewhat important","Somewhat important","Slightly important","Somewhat important","Somewhat important","Slightly important","Somewhat important","Somewhat important","7","5"
"2019/04/30 12:23:21 PM EET","Halløjsovs","Male","Cognitive Science","4","Moderately female","Moderately male","Neither like or dislike","Like","Somewhat important","Very important","Somewhat important","Very important","Slightly important","Slightly important","Somewhat important","Somewhat important","7","6"
"2019/04/30 10:51:35 PM EET","Anders H","Male","Cognitive Science","2","Slightly female","Moderately male","Like","Like","Very important","Not at all important","Not at all important","Slightly important","Very important","Extremely important","Very important","Very important","6","7"
"2019/05/01 11:12:31 AM EET","Daniel","Male","Philosophy","2","Neither male nor female","Neither male nor female","Neither like or dislike","Neither like or dislike","Extremely important","Somewhat important","Not at all important","Not at all important","Somewhat important","Extremely important","Slightly important","Very important","7","8"
"2019/05/02 10:23:14 AM EET","Anna Konnerup","Female","Philosophy","2","Moderately female","Strongly male","Strongly like","Like","Somewhat important","Not at all important","Not at all important","Not at all important","Extremely important","Extremely important","Slightly important","Very important","9","7"
"2019/05/06 10:26:00 AM EET","Bondemanden","Female","Philosophy","4","Neither male nor female","Slightly male","Strongly like","Like","Somewhat important","Very important","Slightly important","Very important","Very important","Very important","Somewhat important","Extremely important","9","9"
"2019/05/06 10:55:58 AM EET","AJN","Female","Philosophy","6","Moderately male","Strongly male","Neither like or dislike","Dislike","Somewhat important","Somewhat important","Very important","Very important","Not at all important","Not at all important","Somewhat important","Somewhat important","9","10"
"2019/05/06 11:10:47 AM EET","au56","Male","Philosophy","6","Moderately male","Strongly male","Like","Like","Slightly important","Not at all important","Not at all important","Somewhat important","Very important","Somewhat important","Slightly important","Extremely important","5","3"
"2019/05/06 11:27:12 AM EET","not_emil_rønn","Female","Cognitive Science","4","Moderately female","Moderately male","Dislike","Like","Slightly important","Not at all important","Somewhat important","Not at all important","Very important","Slightly important","Somewhat important","Slightly important","7","7"
"2019/05/06 11:29:23 AM EET","Amalie","Female","Cognitive Science","4","Moderately female","Strongly male","Like","Like","Somewhat important","Very important","Not at all important","Slightly important","Slightly important","Extremely important","Somewhat important","Extremely important","7","9"
"2019/05/06 11:46:00 AM EET","cykelmyggen","Female","Cognitive Science","4","Neither male nor female","Slightly male","Like","Like","Very important","Slightly important","Very important","Somewhat important","Very important","Somewhat important","Very important","Very important","9","9"
"2019/05/06 11:46:02 AM EET","Sveske","Female","Cognitive Science","4","Slightly female","Slightly male","Like","Strongly like","Very important","Not at all important","Not at all important","Slightly important","Not at all important","Not at all important","Very important","Somewhat important","8","8"
"2019/05/06 11:58:01 AM EET","ssp","Male","Philosophy","4","Slightly male","Slightly male","Strongly like","Strongly like","Not at all important","Not at all important","Somewhat important","Slightly important","Very important","Slightly important","Very important","Very important","5","4"
"2019/05/06 12:01:04 PM EET","DVN","Female","Philosophy","4","Slightly female","Neither male nor female","Strongly like","Neither like or dislike","Very important","Somewhat important","Not at all important","Not at all important","Not at all important","Very important","Very important","Very important","5","5"
"2019/05/06 12:10:20 PM EET","History Man","Male","Philosophy","4","Moderately female","Moderately male","Like","Neither like or dislike","Slightly important","Somewhat important","Slightly important","Very important","Somewhat important","Somewhat important","Somewhat important","Very important","9","8"
"2019/05/06 12:11:01 PM EET","Asbjørn","Male","Philosophy","4","Neither male nor female","Neither male nor female","Like","Dislike","Very important","Somewhat important","Very important","Very important","Very important","Not at all important","Very important","Very important","5","5"
"2019/05/06 1:53:10 PM EET","GrandMan","Male","Cognitive Science","4","Strongly female","Moderately male","Like","Strongly like","Slightly important","Not at all important","Somewhat important","Somewhat important","Not at all important","Somewhat important","Extremely important","Extremely important","8","7"
"2019/05/06 2:11:15 PM EET","KEP","Female","Cognitive Science","4","Neither male nor female","Strongly male","Like","Like","Somewhat important","Not at all important","Very important","Slightly important","Very important","Somewhat important","Very important","Very important","5","5"
"2019/05/06 2:22:57 PM EET","CST","Female","Cognitive Science","4","Slightly female","Slightly male","Neither like or dislike","Strongly like","Somewhat important","Slightly important","Not at all important","Slightly important","Somewhat important","Very important","Extremely important","Somewhat important","9","8"
"2019/05/06 4:16:18 PM EET","TDK","Male","Cognitive Science","4","Neither male nor female","Neither male nor female","Like","Like","Slightly important","Not at all important","Slightly important","Not at all important","Slightly important","Not at all important","Somewhat important","Somewhat important","4","4"
"2019/05/07 2:10:48 PM EET","Lime","Male","Cognitive Science","4","Moderately female","Strongly male","Dislike","Strongly like","Extremely important","Not at all important","Slightly important","Somewhat important","Very important","Extremely important","Very important","Slightly important","7","10"
"2019/05/09 1:49:31 PM EET","BH","Male","Philosophy","4","Neither male nor female","Neither male nor female","Strongly like","Strongly like","Not at all important","Not at all important","Not at all important","Slightly important","Very important","Extremely important","Slightly important","Very important","10","10"
"2019/05/09 2:00:04 PM EET","MLHH","Female","Philosophy","4","Neither male nor female","Moderately male","Like","Like","Very important","Somewhat important","Very important","Slightly important","Extremely important","Extremely important","Extremely important","Extremely important","8","9"
"2019/05/09 2:09:21 PM EET","ALA","Female","Philosophy","4","Neither male nor female","Slightly male","Strongly like","Like","Not at all important","Not at all important","Not at all important","Not at all important","Extremely important","Extremely important","Very important","Very important","8","8"
"2019/05/10 1:55:50 PM EET","JB","Male","Philosophy","4","Neither male nor female","Neither male nor female","Strongly like","Like","Not at all important","Not at all important","Not at all important","Slightly important","Somewhat important","Somewhat important","Somewhat important","Very important","6","6"
"2019/05/10 2:03:06 PM EET","AU578816","Male","Philosophy","4","Neither male nor female","Moderately male","Strongly like","Like","Extremely important","Very important","Somewhat important","Very important","Very important","Very important","Extremely important","Extremely important","6","9"
"2019/05/12 7:31:20 PM EET","Johan","Male","Cognitive Science","2","Neither male nor female","Neither male nor female","Like","Strongly like","Not at all important","Not at all important","Not at all important","Slightly important","Extremely important","Extremely important","Somewhat important","Somewhat important","7","7"
"2019/05/13 12:21:08 PM EET","SigneH","Female","Cognitive Science","4","Moderately female","Moderately male","Neither like or dislike","Like","Somewhat important","Somewhat important","Slightly important","Somewhat important","Very important","Very important","Somewhat important","Slightly important","5","5"
"2019/05/14 4:09:40 PM EET","yqy","Female","Cognitive Science","6","Neither male nor female","Slightly male","Like","Like","Somewhat important","Slightly important","Not at all important","Slightly important","Very important","Somewhat important","Very important","Very important","6","6"